Exercise 6
…
visited_fruits <- wildschwein_BE_annotated |> 
  count(Frucht, sort = TRUE)

wildschwein_eat_fruits <- wildschwein_BE_annotated |> 
  count(TierName, Frucht, sort = TRUE)

visited_fruits

Simple feature collection with 25 features and 2 fields
Geometry type: GEOMETRY
Dimension:     XY
Bounding box:  xmin: 2568174 ymin: 1203130 xmax: 2574285 ymax: 1207596
Projected CRS: CH1903+ / LV95
# A tibble: 25 × 3
   Frucht           n                                                   geometry
 * <chr>        <int>                                           <MULTIPOINT [m]>
 1 Wald          9460 ((2568949 1206428), (2568968 1206365), (2568973 1206428),…
 2 Feuchtgebiet  2202 ((2568174 1205647), (2568225 1205684), (2568255 1205713),…
 3 Gerste        1483 ((2572140 1204640), (2572205 1203765), (2572205 1204665),…
 4 <NA>           608 ((2569055 1206561), (2569097 1207147), (2569137 1206674),…
 5 Rueben         446 ((2569633 1207101), (2569636 1207104), (2569636 1207097),…
 6 Bohnen         329 ((2569388 1207275), (2569402 1207267), (2569462 1207306),…
 7 Wiese          296 ((2568847 1206226), (2568850 1206247), (2568881 1206276),…
 8 Zwiebeln       221 ((2569157 1206878), (2569158 1206883), (2569163 1206890),…
 9 Mais           151 ((2569852 1207302), (2570134 1206783), (2570164 1206754),…
10 Weizen         128 ((2569431 1207183), (2569578 1207376), (2569588 1207339),…
# ℹ 15 more rows

wildschwein_eat_fruits

Simple feature collection with 41 features and 3 fields
Geometry type: GEOMETRY
Dimension:     XY
Bounding box:  xmin: 2568174 ymin: 1203130 xmax: 2574285 ymax: 1207596
Projected CRS: CH1903+ / LV95
# A tibble: 41 × 4
   TierName Frucht           n                                          geometry
 * <chr>    <chr>        <int>                                  <MULTIPOINT [m]>
 1 Rosa     Wald          3535 ((2572426 1204199), (2572431 1204196), (2572437 …
 2 Sabi     Wald          3438 ((2569478 1205980), (2569900 1205909), (2569901 …
 3 Ruth     Wald          2487 ((2568949 1206428), (2568968 1206365), (2568973 …
 4 Sabi     Feuchtgebiet  1591 ((2569250 1205815), (2569283 1205764), (2569613 …
 5 Rosa     Gerste        1483 ((2572140 1204640), (2572205 1203765), (2572205 …
 6 Ruth     Feuchtgebiet   611 ((2568174 1205647), (2568225 1205684), (2568255 …
 7 Sabi     <NA>           487 ((2569404 1205677), (2569457 1205579), (2569468 …
 8 Sabi     Bohnen         305 ((2570809 1205233), (2570818 1205196), (2570821 …
 9 Rosa     Rueben         261 ((2572811 1204138), (2572815 1204118), (2572816 …
10 Ruth     Zwiebeln       219 ((2569157 1206878), (2569158 1206883), (2569163 …
# ℹ 31 more rows
…
wildschwein_BE_veg <- wildschwein_BE |>
  mutate(
    vegetationshoehe_LFI = vegetation_values[[2]]
  ) |>
  select(TierID, TierName, DatetimeUTC, vegetationshoehe_LFI, geometry)

wildschwein_BE_veg

Simple feature collection with 15563 features and 4 fields
Geometry type: POINT
Dimension:     XY
Bounding box:  xmin: 2568174 ymin: 1203130 xmax: 2574285 ymax: 1207596
Projected CRS: CH1903+ / LV95
# A tibble: 15,563 × 5
   TierID TierName DatetimeUTC         vegetationshoehe_LFI
   <chr>  <chr>    <dttm>                             <dbl>
 1 002A   Sabi     2015-04-30 22:00:13                11.4 
 2 002A   Sabi     2015-04-30 22:15:08                11.1 
 3 002A   Sabi     2015-04-30 22:30:12                 9.68
 4 002A   Sabi     2015-04-30 22:45:13                10.5 
 5 002A   Sabi     2015-04-30 23:00:18                11.5 
 6 002A   Sabi     2015-04-30 23:15:32                 8.91
 7 002A   Sabi     2015-04-30 23:30:44                11.9 
 8 002A   Sabi     2015-04-30 23:45:10                14.0 
 9 002A   Sabi     2015-05-01 00:00:17                 8.74
10 002A   Sabi     2015-05-01 00:15:25                20.6 
# ℹ 15,553 more rows
# ℹ 1 more variable: geometry <POINT [m]>
…
